…
data_1 <- rbind(jan_4, feb_4, mar_4, apr_4, may_4, jun_4, jul_4, aug_4, sep_4)
data_2 <- rbind(dec_4, jan_4, feb_4, mar_4, apr_4, may_4, jun_4, jul_4, aug_4)

data_11 <- data_1 %>% group_by(Province, Date) %>% summarise(across(c(Deaths, Active), sum))
```

    ## `summarise()` has grouped output by 'Province'. You can override using the `.groups` argument.

``` r
data_11
```

    ## # A tibble: 531 x 4
    ##    Province  Date                 Deaths   Active
    ##    <chr>     <chr>                 <int>    <int>
    ##  1 ""        2021-01-31T00:00:00Z 449195 25799922
    ##  2 ""        2021-02-28T00:00:00Z 514818 28136320
    ##  3 ""        2021-03-31T00:00:00Z 552322 29912496
    ##  4 ""        2021-04-30T00:00:00Z 576112 31774444
    ##  5 ""        2021-05-31T00:00:00Z 594286 32673092
    ##  6 ""        2021-06-30T00:00:00Z 604613 33060180
    ##  7 ""        2021-07-31T00:00:00Z 613352 34365119
    ##  8 ""        2021-08-31T00:00:00Z 641180 38557964
    ##  9 ""        2021-09-30T00:00:00Z 697851 42761967
    ## 10 "Alabama" 2021-01-31T00:00:00Z   7688   451951
    ## # ... with 521 more rows

``` r
data_22 <- data_2 %>% group_by(Province, Date) %>% summarise(across(c(Deaths, Active), sum))
```

    ## `summarise()` has grouped output by 'Province'. You can override using the `.groups` argument.

``` r
names(data_22) <- c("State", "Date2", "Deaths2", "Active2")
mydata1 <- cbind(data_11, data_22)
mydata1
```

    ## # A tibble: 531 x 8
    ##    Province  Date                 Deaths   Active State     Date2                Deaths2  Active2
    ##    <chr>     <chr>                 <int>    <int> <chr>     <chr>                  <int>    <int>
    ##  1 ""        2021-01-31T00:00:00Z 449195 25799922 ""        2020-12-31T00:00:00Z  352001 19748034
    ##  2 ""        2021-02-28T00:00:00Z 514818 28136320 ""        2021-01-31T00:00:00Z  449195 25799922
    ##  3 ""        2021-03-31T00:00:00Z 552322 29912496 ""        2021-02-28T00:00:00Z  514818 28136320
    ##  4 ""        2021-04-30T00:00:00Z 576112 31774444 ""        2021-03-31T00:00:00Z  552322 29912496
    ##  5 ""        2021-05-31T00:00:00Z 594286 32673092 ""        2021-04-30T00:00:00Z  576112 31774444
    ##  6 ""        2021-06-30T00:00:00Z 604613 33060180 ""        2021-05-31T00:00:00Z  594286 32673092
    ##  7 ""        2021-07-31T00:00:00Z 613352 34365119 ""        2021-06-30T00:00:00Z  604613 33060180
    ##  8 ""        2021-08-31T00:00:00Z 641180 38557964 ""        2021-07-31T00:00:00Z  613352 34365119
    ##  9 ""        2021-09-30T00:00:00Z 697851 42761967 ""        2021-08-31T00:00:00Z  641180 38557964
    ## 10 "Alabama" 2021-01-31T00:00:00Z   7688   451951 "Alabama" 2020-12-31T00:00:00Z    4827   356399
    ## # ... with 521 more rows
…
