ST558 - Vignette Project - Covid-19 Data
…
Note 2: Free API query does not require a key for the Covid-19 API site. However, free queries have limited access and functionality. For example, free queries can only query up to a week of data at once. So, if you need to query a month of data. you will have to run the query four times with different date inputs.

2.3 Using an API

Below is the API URL used with get_data function I created to query the data for all cases type for the United States from January 3rd, 2021 to January 5th, 2021 (3 days). We can see it returns for 10,000 rows and 13 columns including every city from every state in the United States for 3 days worth of all cases type of data. I realized by looking at this example data that all cases types are accumulated up untill the date/time queried. If I want to calculate all cases types for each month for each state in the United States, I can query one day of data at the end of each month, group by each state and sum up all different cases type, subtract them from the previous end of month one day data. Then, we will have the number of all cases types per state per month, not cumulatively. Lets see if this works!

choose_api(5, "usa", date_from="2021 1 3", date_to="2021 1 5", time_to="23:59:59")

## [1] "https://api.covid19api.com/country/united-states?from=2021-01-03T00:00:00Z&to=2021-01-05T23:59:59Z"

test_data <- get_data(5, "usa", date_from="2021 1 3", date_to="2021 1 5", time_to="23:59:59")
test_data <- test_data %>% group_by(City)
test_data

## # A tibble: 10,011 x 13
## # Groups:   City [1,975]
##    ID        Country   CountryCode Province City  CityCode Lat   Lon   Confirmed
##    <chr>     <chr>     <chr>       <chr>    <chr> <chr>    <chr> <chr>     <int>
##  1 00055249~ United S~ US          Texas    Hend~ 48213    32.21 -95.~      3675
##  2 000f161d~ United S~ US          New Mex~ Torr~ 35057    34.64 -105~       498
##  3 00591a34~ United S~ US          Oklahoma Pitt~ 40121    34.92 -95.~      3184
##  4 009f4dd8~ United S~ US          Arkansas Mill~ 5091     33.31 -93.~      2818
##  5 00b299cb~ United S~ US          Mississ~ Tate  28137    34.65 -89.~      2441
##  6 00d8ef35~ United S~ US          Illinois Wayne 17191    38.43 -88.~      1358
##  7 00eb8717~ United S~ US          Virginia Carr~ 51035    36.73 -80.~      1534
##  8 0105b524~ United S~ US          South D~ Auro~ 46003    43.72 -98.~       414
##  9 0105d892~ United S~ US          Tenness~ Laud~ 47097    35.76 -89.~      2702
## 10 012b834c~ United S~ US          New Jer~ Camd~ 34007    39.8  -74.~     32243
## # ... with 10,001 more rows, and 4 more variables: Deaths <int>,
## #   Recovered <int>, Active <int>, Date <chr>
…
4. Data Manipulation

At this point, I have data from every city in each state. So, I grouped by Province and Date and sum up all different case types for each state for the same date. I applied this to both data sets. Then, I changed the names of the columns in one of the datasets in order to perform a column-combination of the two tables afterwards and saved it as an object, mydata1. Now, mydata1 is in a format I had in mind earlier as shown in the table above.

after_date <- late_date %>% group_by(Province, Date) %>% summarise(across(c(Confirmed, Deaths, Active), sum))
before_date <- early_date %>% group_by(Province, Date) %>% summarise(across(c(Confirmed, Deaths, Active), sum))

names(before_date) <- c("State", "Date2", "Confirmed2", "Deaths2", "Active2")
mydata1 <- cbind(after_date, before_date)
alldata <- mydata1[1:9, ]
mydata1 <- mydata1[-1:-9, ]
mydata1

## # A tibble: 522 x 10
## # Groups:   Province [58]
##    Province Date  Confirmed Deaths Active State Date2 Confirmed2 Deaths2 Active2
##    <chr>    <chr>     <int>  <int>  <int> <chr> <chr>      <int>   <int>   <int>
##  1 Alabama  2021~    459639   7688 451951 Alab~ 2020~     361226    4827  356399
##  2 Alabama  2021~    493252   9929 483323 Alab~ 2021~     459639    7688  451951
##  3 Alabama  2021~    515388  10554 504834 Alab~ 2021~     493252    9929  483323
##  4 Alabama  2021~    527922  10896 517026 Alab~ 2021~     515388   10554  504834
##  5 Alabama  2021~    543405  11146 532259 Alab~ 2021~     527922   10896  517026
##  6 Alabama  2021~    550983  11352 539631 Alab~ 2021~     543405   11146  532259
##  7 Alabama  2021~    585607  11536 574071 Alab~ 2021~     550983   11352  539631
##  8 Alabama  2021~    699729  12283 687446 Alab~ 2021~     585607   11536  574071
##  9 Alabama  2021~    796475  14299 782176 Alab~ 2021~     699729   12283  687446
## 10 Alaska   2021~     54350    262  54088 Alas~ 2020~      47014     206   46808
## # ... with 512 more rows
…
Active

You can also save this data to your local drive in case of an unexpected event occurred such as website maintenance.

mydata2 <- mydata1 %>% mutate(Total = Confirmed - Confirmed2, Death = Deaths - Deaths2, Active_cases = Active - Active2, 
                              Month = rep(c("Jan", "Feb", "Mar", "Apr", "May", "Jun", "Jul", "Aug", "Sep"))) %>% 
  select(State, Month, Total, Death, Active_cases)

## Adding missing grouping variables: `Province`

names(mydata2) <- c("Province","State", "Month", "Total", "Deaths", "Active")
mydata2

## # A tibble: 522 x 6
## # Groups:   Province [58]
##    Province State   Month  Total Deaths Active
##    <chr>    <chr>   <chr>  <int>  <int>  <int>
##  1 Alabama  Alabama Jan    98413   2861  95552
##  2 Alabama  Alabama Feb    33613   2241  31372
##  3 Alabama  Alabama Mar    22136    625  21511
##  4 Alabama  Alabama Apr    12534    342  12192
##  5 Alabama  Alabama May    15483    250  15233
##  6 Alabama  Alabama Jun     7578    206   7372
##  7 Alabama  Alabama Jul    34624    184  34440
##  8 Alabama  Alabama Aug   114122    747 113375
##  9 Alabama  Alabama Sep    96746   2016  94730
## 10 Alaska   Alaska  Jan     7336     56   7280
## # ... with 512 more rows
…
